{
    "index": {
        "download_fdroid": "Last ned F-Droid", 
        "gpg_signature": "PGP-signatur", 
        "introduction": "F-Droid er en installerbar katalog av fri programvare for Android-plattformen. Klienten gjør det enkelt å utforske, installere og holde oppsyn med oppdateringer på din enhet.", 
        "screenshot": "Skjermavbildning av Android-programmet F-Droid", 
        "title": "Hva er F-Droid?"
    }, 
    "navigation": {
        "about": "Om", 
        "browse": "Utforsk", 
        "contribute": "Bidra", 
        "documentation": "Dokumentasjon", 
        "forum": "Forum", 
        "issues": "Problemer", 
        "news": "Nyheter", 
        "repomaker": "Repomaker"
    }, 
    "package": {
        "author": "Utvikler", 
        "build_metadata": "Metadata for bygg", 
        "changelog": "Endringslogg", 
        "donate": "Doner", 
        "download": "Last ned [file_extension]", 
        "flattr": "Flattr", 
        "gpg_signature": "PGP-signatur", 
        "issue_tracker": "Problemsporer", 
        "license": "Lisens", 
        "minimum_android_version": "Denne versjonen krever Android [android_version]  eller nyere.", 
        "new_in_version": "Nytt i versjon [latest_version]", 
        "packages": "Pakker", 
        "permissions": "Tilganger", 
        "signed_by_developer": "Den er bygd og signert av den originale utvikleren.", 
        "signed_by_fdroid": "Den er bygd og signert av F-Droid, og samsvarer garantert med <a href=\"[source_code_url]\">denne kildetjæreballen</a>.", 
        "source_code": "Kildekode", 
        "suggest_downloading_via_fdroid": "Selv APK-nedlastinger er tilgjengelige nedenfor for å gi deg valget, bør du være oppmerksom på at ved å installere på den måten vil du ikke motta oppdateringsmerknader, og det er en mindre sikker måte å laste ned på. Vi anbefaler at du installerer F-Droid-klienten og bruker den.", 
        "technical_info": "Teknisk info", 
        "version_info": "<b>Versjon [package_version]</b> ([package_version_code]) - Lagt til [package_added_date]", 
        "website": "Nettside"
    }, 
    "sidebars": {
        "donate": {
            "bank_transfer_name": "Navn", 
            "bitcoin_alt": "Bitcoin", 
            "flattr_alt": "Doner via Flattr", 
            "heading": "Doner", 
            "paypal_alt": "Doner via PayPal", 
            "powered_by_donations": "F-Droid drives av dine donasjoner!", 
            "via_bank_transfer": "Bankoverføring"
        }, 
        "last_updated": {
            "heading": "Sist oppdatert"
        }, 
        "latest_packages": {
            "heading": "Siste programmer"
        }, 
        "news": {
            "heading": "Nyheter"
        }, 
        "search": {
            "heading": "Finn programmer", 
            "noscript": "Krever at JavaScript er påskrudd"
        }
    }
}